%YAML 1.1
%TAG !u! tag:unity3d.com,2011:
--- !u!74 &7400000
AnimationClip:
  m_ObjectHideFlags: 0
  m_CorrespondingSourceObject: {fileID: 0}
  m_PrefabInstance: {fileID: 0}
  m_PrefabAsset: {fileID: 0}
  m_Name: health_charge_tower_off
  serializedVersion: 6
  m_Legacy: 0
  m_Compressed: 0
  m_UseHighQualityCurve: 1
  m_RotationCurves: []
  m_CompressedRotationCurves: []
  m_EulerCurves: []
  m_PositionCurves: []
  m_ScaleCurves: []
  m_FloatCurves: []
  m_PPtrCurves:
  - curve:
    - time: 0
      value: {fileID: 21300000, guid: 0117c34720d12374f8927e014f105741, type: 3}
    - time: 0.16666667
      value: {fileID: 21300000, guid: 9a50e825ae746ff4786f0dd79f6ef950, type: 3}
    - time: 0.33333334
      value: {fileID: 21300000, guid: ccf1a253163e6e843b2a5e1d47555a4a, type: 3}
    - time: 0.5
      value: {fileID: 21300000, guid: d298af7ef9053d34187160ae7ff58285, type: 3}
    - time: 0.6666667
      value: {fileID: 21300000, guid: 9e45cb283ac3304468251967628e756c, type: 3}
    - time: 0.8333333
      value: {fileID: 21300000, guid: dbb2c188cbdfaed4e8dff3dad36448db, type: 3}
    - time: 1
      value: {fileID: 21300000, guid: 7b6b993cc939a6a4e81844828b941fa5, type: 3}
    attribute: m_Sprite
    path: 
    classID: 212
    script: {fileID: 0}
  m_SampleRate: 60
  m_WrapMode: 0
  m_Bounds:
    m_Center: {x: 0, y: 0, z: 0}
    m_Extent: {x: 0, y: 0, z: 0}
  m_ClipBindingConstant:
    genericBindings:
    - serializedVersion: 2
      path: 0
      attribute: 0
      script: {fileID: 0}
      typeID: 212
      customType: 23
      isPPtrCurve: 1
    pptrCurveMapping:
    - {fileID: 21300000, guid: 0117c34720d12374f8927e014f105741, type: 3}
    - {fileID: 21300000, guid: 9a50e825ae746ff4786f0dd79f6ef950, type: 3}
    - {fileID: 21300000, guid: ccf1a253163e6e843b2a5e1d47555a4a, type: 3}
    - {fileID: 21300000, guid: d298af7ef9053d34187160ae7ff58285, type: 3}
    - {fileID: 21300000, guid: 9e45cb283ac3304468251967628e756c, type: 3}
    - {fileID: 21300000, guid: dbb2c188cbdfaed4e8dff3dad36448db, type: 3}
    - {fileID: 21300000, guid: 7b6b993cc939a6a4e81844828b941fa5, type: 3}
  m_AnimationClipSettings:
    serializedVersion: 2
    m_AdditiveReferencePoseClip: {fileID: 0}
    m_AdditiveReferencePoseTime: 0
    m_StartTime: 0
    m_StopTime: 1.0166667
    m_OrientationOffsetY: 0
    m_Level: 0
    m_CycleOffset: 0
    m_HasAdditiveReferencePose: 0
    m_LoopTime: 0
    m_LoopBlend: 0
    m_LoopBlendOrientation: 0
    m_LoopBlendPositionY: 0
    m_LoopBlendPositionXZ: 0
    m_KeepOriginalOrientation: 0
    m_KeepOriginalPositionY: 1
    m_KeepOriginalPositionXZ: 0
    m_HeightFromFeet: 0
    m_Mirror: 0
  m_EditorCurves: []
  m_EulerEditorCurves: []
  m_HasGenericRootTransform: 0
  m_HasMotionFloatCurves: 0
  m_Events: []
