%YAML 1.1
%TAG !u! tag:unity3d.com,2011:
--- !u!74 &7400000
AnimationClip:
  m_ObjectHideFlags: 0
  m_CorrespondingSourceObject: {fileID: 0}
  m_PrefabInstance: {fileID: 0}
  m_PrefabAsset: {fileID: 0}
  m_Name: NPC_Selected_18
  serializedVersion: 6
  m_Legacy: 0
  m_Compressed: 0
  m_UseHighQualityCurve: 1
  m_RotationCurves: []
  m_CompressedRotationCurves: []
  m_EulerCurves: []
  m_PositionCurves: []
  m_ScaleCurves: []
  m_FloatCurves: []
  m_PPtrCurves:
  - curve:
    - time: 0
      value: {fileID: 21300000, guid: 3c7bd1872e0c0cf4caecdd979f0166a4, type: 3}
    - time: 0.2
      value: {fileID: 21300000, guid: 2b6298666edae3a428607098d23a6c6c, type: 3}
    - time: 0.35
      value: {fileID: 21300000, guid: 582b53e93b1dd6b4eb929605323170c3, type: 3}
    - time: 0.55
      value: {fileID: 21300000, guid: 23847169e0bf16d4f98ee6c2772929ff, type: 3}
    - time: 0.7
      value: {fileID: 21300000, guid: b1be0fb95fa42b54d982e019de44127b, type: 3}
    - time: 0.9
      value: {fileID: 21300000, guid: fdb42a984f3756a4598e40f719084196, type: 3}
    - time: 1.05
      value: {fileID: 21300000, guid: b204e95a40ffe6b4c916071d3278134c, type: 3}
    - time: 1.25
      value: {fileID: 21300000, guid: 70158a1862ba1a849a04f9d19ec718c0, type: 3}
    - time: 1.4
      value: {fileID: 21300000, guid: a3e51cae9138afb46b5c0d7655e4f362, type: 3}
    - time: 1.6
      value: {fileID: 21300000, guid: 96e3d1f02e528b64293a919e40f10df8, type: 3}
    - time: 1.75
      value: {fileID: 21300000, guid: 8aa0cd9b7d55c9949bd628f600e84a30, type: 3}
    - time: 1.95
      value: {fileID: 21300000, guid: 1bd2c39e67b3f7a43ab8ca3e100c34d8, type: 3}
    - time: 2.1
      value: {fileID: 21300000, guid: 041dbf20081616a46ab4bbea95563be4, type: 3}
    - time: 2.3
      value: {fileID: 21300000, guid: aa90a01bcc0577e489c8be8084e8ed50, type: 3}
    - time: 2.45
      value: {fileID: 21300000, guid: 3f7f0c55975524b4fbbcc2fcf7865872, type: 3}
    - time: 2.65
      value: {fileID: 21300000, guid: 9a5abc330c3b92f47ad6a93f6cda39ae, type: 3}
    - time: 2.8
      value: {fileID: 21300000, guid: 711305c284f820242b175d2407733d9b, type: 3}
    - time: 3
      value: {fileID: 21300000, guid: be5cdee00fd0bb347b7dd3ba928b5aad, type: 3}
    attribute: m_Sprite
    path: 
    classID: 212
    script: {fileID: 0}
  m_SampleRate: 60
  m_WrapMode: 0
  m_Bounds:
    m_Center: {x: 0, y: 0, z: 0}
    m_Extent: {x: 0, y: 0, z: 0}
  m_ClipBindingConstant:
    genericBindings:
    - serializedVersion: 2
      path: 0
      attribute: 0
      script: {fileID: 0}
      typeID: 212
      customType: 23
      isPPtrCurve: 1
    pptrCurveMapping:
    - {fileID: 21300000, guid: 3c7bd1872e0c0cf4caecdd979f0166a4, type: 3}
    - {fileID: 21300000, guid: 2b6298666edae3a428607098d23a6c6c, type: 3}
    - {fileID: 21300000, guid: 582b53e93b1dd6b4eb929605323170c3, type: 3}
    - {fileID: 21300000, guid: 23847169e0bf16d4f98ee6c2772929ff, type: 3}
    - {fileID: 21300000, guid: b1be0fb95fa42b54d982e019de44127b, type: 3}
    - {fileID: 21300000, guid: fdb42a984f3756a4598e40f719084196, type: 3}
    - {fileID: 21300000, guid: b204e95a40ffe6b4c916071d3278134c, type: 3}
    - {fileID: 21300000, guid: 70158a1862ba1a849a04f9d19ec718c0, type: 3}
    - {fileID: 21300000, guid: a3e51cae9138afb46b5c0d7655e4f362, type: 3}
    - {fileID: 21300000, guid: 96e3d1f02e528b64293a919e40f10df8, type: 3}
    - {fileID: 21300000, guid: 8aa0cd9b7d55c9949bd628f600e84a30, type: 3}
    - {fileID: 21300000, guid: 1bd2c39e67b3f7a43ab8ca3e100c34d8, type: 3}
    - {fileID: 21300000, guid: 041dbf20081616a46ab4bbea95563be4, type: 3}
    - {fileID: 21300000, guid: aa90a01bcc0577e489c8be8084e8ed50, type: 3}
    - {fileID: 21300000, guid: 3f7f0c55975524b4fbbcc2fcf7865872, type: 3}
    - {fileID: 21300000, guid: 9a5abc330c3b92f47ad6a93f6cda39ae, type: 3}
    - {fileID: 21300000, guid: 711305c284f820242b175d2407733d9b, type: 3}
    - {fileID: 21300000, guid: be5cdee00fd0bb347b7dd3ba928b5aad, type: 3}
  m_AnimationClipSettings:
    serializedVersion: 2
    m_AdditiveReferencePoseClip: {fileID: 0}
    m_AdditiveReferencePoseTime: 0
    m_StartTime: 0
    m_StopTime: 3.0166667
    m_OrientationOffsetY: 0
    m_Level: 0
    m_CycleOffset: 0
    m_HasAdditiveReferencePose: 0
    m_LoopTime: 1
    m_LoopBlend: 0
    m_LoopBlendOrientation: 0
    m_LoopBlendPositionY: 0
    m_LoopBlendPositionXZ: 0
    m_KeepOriginalOrientation: 0
    m_KeepOriginalPositionY: 1
    m_KeepOriginalPositionXZ: 0
    m_HeightFromFeet: 0
    m_Mirror: 0
  m_EditorCurves: []
  m_EulerEditorCurves: []
  m_HasGenericRootTransform: 0
  m_HasMotionFloatCurves: 0
  m_Events: []
