%YAML 1.1
%TAG !u! tag:unity3d.com,2011:
--- !u!21 &2100000
Material:
  serializedVersion: 6
  m_ObjectHideFlags: 0
  m_CorrespondingSourceObject: {fileID: 0}
  m_PrefabInstance: {fileID: 0}
  m_PrefabAsset: {fileID: 0}
  m_Name: GroundEarth01Dark
  m_Shader: {fileID: 203, guid: 0000000000000000f000000000000000, type: 0}
  m_ShaderKeywords: ETC1_EXTERNAL_ALPHA
  m_LightmapFlags: 5
  m_EnableInstancingVariants: 0
  m_DoubleSidedGI: 0
  m_CustomRenderQueue: 3000
  stringTagMap: {}
  disabledShaderPasses: []
  m_SavedProperties:
    serializedVersion: 3
    m_TexEnvs:
    - _MainTex:
        m_Texture: {fileID: 2800000, guid: 085f4f08b777c7648ae1a2d676e6ecae, type: 3}
        m_Scale: {x: 1, y: 1}
        m_Offset: {x: 0, y: 0}
    m_Floats:
    - _InvFade: 3
    m_Colors:
    - _Color: {r: 1, g: 1, b: 1, a: 1}
    - _TintColor: {r: 0, g: 0, b: 0, a: 0.5}
