%YAML 1.1
%TAG !u! tag:unity3d.com,2011:
--- !u!74 &7400000
AnimationClip:
  m_ObjectHideFlags: 0
  m_CorrespondingSourceObject: {fileID: 0}
  m_PrefabInstance: {fileID: 0}
  m_PrefabAsset: {fileID: 0}
  m_Name: Attack_Range
  serializedVersion: 6
  m_Legacy: 0
  m_Compressed: 0
  m_UseHighQualityCurve: 1
  m_RotationCurves: []
  m_CompressedRotationCurves: []
  m_EulerCurves: []
  m_PositionCurves: []
  m_ScaleCurves: []
  m_FloatCurves: []
  m_PPtrCurves:
  - curve:
    - time: 0
      value: {fileID: 21300000, guid: 23153a2e401ae08449ee328b42c21e9e, type: 3}
    - time: 0.13333334
      value: {fileID: 21300000, guid: c32570b2fe840d749a017ddcda8f0983, type: 3}
    - time: 0.26666668
      value: {fileID: 21300000, guid: 5b78c6d80b3728a4f969bf36cd3df1b4, type: 3}
    - time: 0.36666667
      value: {fileID: 21300000, guid: 096aa8fb172173d4abcb22133b771358, type: 3}
    - time: 0.5
      value: {fileID: 21300000, guid: 44c7ef8f5fe06984692cb4206cda8a60, type: 3}
    - time: 0.6333333
      value: {fileID: 21300000, guid: 5d861db0db2ea68419cc1eb671c0d1c8, type: 3}
    - time: 0.73333335
      value: {fileID: 21300000, guid: 7e71da355ed64354898205cc118a699c, type: 3}
    - time: 0.8666667
      value: {fileID: 21300000, guid: 6fffb693f7895a44689a325e0af683cc, type: 3}
    - time: 1
      value: {fileID: 21300000, guid: 23153a2e401ae08449ee328b42c21e9e, type: 3}
    attribute: m_Sprite
    path: 
    classID: 212
    script: {fileID: 0}
  m_SampleRate: 60
  m_WrapMode: 0
  m_Bounds:
    m_Center: {x: 0, y: 0, z: 0}
    m_Extent: {x: 0, y: 0, z: 0}
  m_ClipBindingConstant:
    genericBindings:
    - serializedVersion: 2
      path: 0
      attribute: 0
      script: {fileID: 0}
      typeID: 212
      customType: 23
      isPPtrCurve: 1
    pptrCurveMapping:
    - {fileID: 21300000, guid: 23153a2e401ae08449ee328b42c21e9e, type: 3}
    - {fileID: 21300000, guid: c32570b2fe840d749a017ddcda8f0983, type: 3}
    - {fileID: 21300000, guid: 5b78c6d80b3728a4f969bf36cd3df1b4, type: 3}
    - {fileID: 21300000, guid: 096aa8fb172173d4abcb22133b771358, type: 3}
    - {fileID: 21300000, guid: 44c7ef8f5fe06984692cb4206cda8a60, type: 3}
    - {fileID: 21300000, guid: 5d861db0db2ea68419cc1eb671c0d1c8, type: 3}
    - {fileID: 21300000, guid: 7e71da355ed64354898205cc118a699c, type: 3}
    - {fileID: 21300000, guid: 6fffb693f7895a44689a325e0af683cc, type: 3}
    - {fileID: 21300000, guid: 23153a2e401ae08449ee328b42c21e9e, type: 3}
  m_AnimationClipSettings:
    serializedVersion: 2
    m_AdditiveReferencePoseClip: {fileID: 0}
    m_AdditiveReferencePoseTime: 0
    m_StartTime: 0
    m_StopTime: 1.0166667
    m_OrientationOffsetY: 0
    m_Level: 0
    m_CycleOffset: 0
    m_HasAdditiveReferencePose: 0
    m_LoopTime: 0
    m_LoopBlend: 0
    m_LoopBlendOrientation: 0
    m_LoopBlendPositionY: 0
    m_LoopBlendPositionXZ: 0
    m_KeepOriginalOrientation: 0
    m_KeepOriginalPositionY: 1
    m_KeepOriginalPositionXZ: 0
    m_HeightFromFeet: 0
    m_Mirror: 0
  m_EditorCurves: []
  m_EulerEditorCurves: []
  m_HasGenericRootTransform: 0
  m_HasMotionFloatCurves: 0
  m_Events:
  - time: 1
    functionName: BrightSlimeRangeAttack
    data: 
    objectReferenceParameter: {fileID: 0}
    floatParameter: 0
    intParameter: 0
    messageOptions: 0
