%YAML 1.1
%TAG !u! tag:unity3d.com,2011:
--- !u!114 &11400000
MonoBehaviour:
  m_ObjectHideFlags: 0
  m_CorrespondingSourceObject: {fileID: 0}
  m_PrefabInstance: {fileID: 0}
  m_PrefabAsset: {fileID: 0}
  m_GameObject: {fileID: 0}
  m_Enabled: 1
  m_EditorHideFlags: 0
  m_Script: {fileID: 11500000, guid: 9529ae2b2ee0d1e4d802b51d271424c3, type: 3}
  m_Name: KoalaSword
  m_EditorClassIdentifier: 
  ItemID: KoalaSword
  TargetInventoryName: KoalaMainInventory
  Usable: 0
  Equippable: 1
  Quantity: 1
  ItemName: Sword
  ShortDescription: Point pointy end towards the enemy
  Description: A rapid-fire, magazine-fed automatic rifle designed for infantry use.
  CanMoveObject: 1
  CanSwapObject: 1
  Icon: {fileID: 21300016, guid: b528708a5a8f28343aefa9e1d46670a7, type: 3}
  Prefab: {fileID: 1660504258585598, guid: 376a6904cf0b75744a4e3cb2b8786bad, type: 3}
  SpawnShape: 1
  PrefabDropMinDistance: {x: 2, y: 2, z: 0}
  PrefabDropMaxDistance: {x: 3, y: 3, z: 0}
  MaximumStack: 1
  ItemClass: 2
  TargetEquipmentInventoryName: KoalaWeaponInventory
  EquippedSound: {fileID: 0}
  UsedSound: {fileID: 0}
  MovedSound: {fileID: 0}
  DroppedSound: {fileID: 0}
  UseDefaultSoundsIfNull: 1
  EquippableWeapon: {fileID: 114594623923584052, guid: ea4d9a1282e7d5748a3393a32892ddbf,
    type: 3}
  AutoEquipMode: 2
