%YAML 1.1
%TAG !u! tag:unity3d.com,2011:
--- !u!74 &7400000
AnimationClip:
  m_ObjectHideFlags: 0
  m_CorrespondingSourceObject: {fileID: 0}
  m_PrefabInstance: {fileID: 0}
  m_PrefabAsset: {fileID: 0}
  m_Name: DeepImpact
  serializedVersion: 6
  m_Legacy: 0
  m_Compressed: 0
  m_UseHighQualityCurve: 1
  m_RotationCurves: []
  m_CompressedRotationCurves: []
  m_EulerCurves: []
  m_PositionCurves: []
  m_ScaleCurves: []
  m_FloatCurves:
  - curve:
      serializedVersion: 2
      m_Curve:
      - serializedVersion: 3
        time: 0
        value: 0
        inSlope: Infinity
        outSlope: Infinity
        tangentMode: 103
        weightedMode: 0
        inWeight: 0
        outWeight: 0
      - serializedVersion: 3
        time: 1.0166667
        value: 1
        inSlope: Infinity
        outSlope: Infinity
        tangentMode: 103
        weightedMode: 0
        inWeight: 0
        outWeight: 0
      m_PreInfinity: 2
      m_PostInfinity: 2
      m_RotationOrder: 4
    attribute: m_Enabled
    path: blasting_fire_blasting_fire_0
    classID: 212
    script: {fileID: 0}
  m_PPtrCurves:
  - curve:
    - time: 0
      value: {fileID: 21300000, guid: 4e8b962f503d9e348807a3c9e2035e55, type: 3}
    - time: 0.06666667
      value: {fileID: 21300000, guid: 4f6aeab33305a764a8d7539cd1b8c745, type: 3}
    - time: 0.15
      value: {fileID: 21300000, guid: b7e1311ecc7435d4ea60cda0b8cdca4c, type: 3}
    - time: 0.21666667
      value: {fileID: 21300000, guid: ecd55006ae3e11e43812dbded8758d75, type: 3}
    - time: 0.28333333
      value: {fileID: 21300000, guid: a1249e0874b4ecf4fbd8b861c081debd, type: 3}
    - time: 0.35
      value: {fileID: 21300000, guid: 59d91e34da2ca2a4685af5b4507e24db, type: 3}
    - time: 0.43333334
      value: {fileID: 21300000, guid: a8e8a1cf65ed79646a2870e9728a9f7f, type: 3}
    - time: 0.5
      value: {fileID: 21300000, guid: 702c8a993c76e8e4294caaf4e8ccd8ab, type: 3}
    - time: 0.56666666
      value: {fileID: 21300000, guid: c15648a692dabce4388d1758e2e45da8, type: 3}
    - time: 0.65
      value: {fileID: 21300000, guid: 0bdf3dceb2ae5614ba3cd744f540023d, type: 3}
    - time: 0.71666664
      value: {fileID: 21300000, guid: 6e1b4fefdbc44a042ac009050933f964, type: 3}
    - time: 0.78333336
      value: {fileID: 21300000, guid: c8f90fa99cd96ad4a9a7ac40beb20f1a, type: 3}
    - time: 0.85
      value: {fileID: 21300000, guid: 1a950a7f52d2d27439df4fb6e732d6e2, type: 3}
    - time: 0.93333334
      value: {fileID: 21300000, guid: adaa28573b489a7418f6f172824112e1, type: 3}
    - time: 1
      value: {fileID: 21300000, guid: c154f62eb3c220d4f9dffeba158b1701, type: 3}
    attribute: m_Sprite
    path: 
    classID: 212
    script: {fileID: 0}
  m_SampleRate: 60
  m_WrapMode: 0
  m_Bounds:
    m_Center: {x: 0, y: 0, z: 0}
    m_Extent: {x: 0, y: 0, z: 0}
  m_ClipBindingConstant:
    genericBindings:
    - serializedVersion: 2
      path: 3128427009
      attribute: 3305885265
      script: {fileID: 0}
      typeID: 212
      customType: 0
      isPPtrCurve: 0
    - serializedVersion: 2
      path: 0
      attribute: 0
      script: {fileID: 0}
      typeID: 212
      customType: 23
      isPPtrCurve: 1
    pptrCurveMapping:
    - {fileID: 21300000, guid: 4e8b962f503d9e348807a3c9e2035e55, type: 3}
    - {fileID: 21300000, guid: 4f6aeab33305a764a8d7539cd1b8c745, type: 3}
    - {fileID: 21300000, guid: b7e1311ecc7435d4ea60cda0b8cdca4c, type: 3}
    - {fileID: 21300000, guid: ecd55006ae3e11e43812dbded8758d75, type: 3}
    - {fileID: 21300000, guid: a1249e0874b4ecf4fbd8b861c081debd, type: 3}
    - {fileID: 21300000, guid: 59d91e34da2ca2a4685af5b4507e24db, type: 3}
    - {fileID: 21300000, guid: a8e8a1cf65ed79646a2870e9728a9f7f, type: 3}
    - {fileID: 21300000, guid: 702c8a993c76e8e4294caaf4e8ccd8ab, type: 3}
    - {fileID: 21300000, guid: c15648a692dabce4388d1758e2e45da8, type: 3}
    - {fileID: 21300000, guid: 0bdf3dceb2ae5614ba3cd744f540023d, type: 3}
    - {fileID: 21300000, guid: 6e1b4fefdbc44a042ac009050933f964, type: 3}
    - {fileID: 21300000, guid: c8f90fa99cd96ad4a9a7ac40beb20f1a, type: 3}
    - {fileID: 21300000, guid: 1a950a7f52d2d27439df4fb6e732d6e2, type: 3}
    - {fileID: 21300000, guid: adaa28573b489a7418f6f172824112e1, type: 3}
    - {fileID: 21300000, guid: c154f62eb3c220d4f9dffeba158b1701, type: 3}
  m_AnimationClipSettings:
    serializedVersion: 2
    m_AdditiveReferencePoseClip: {fileID: 0}
    m_AdditiveReferencePoseTime: 0
    m_StartTime: 0
    m_StopTime: 1.0166667
    m_OrientationOffsetY: 0
    m_Level: 0
    m_CycleOffset: 0
    m_HasAdditiveReferencePose: 0
    m_LoopTime: 0
    m_LoopBlend: 0
    m_LoopBlendOrientation: 0
    m_LoopBlendPositionY: 0
    m_LoopBlendPositionXZ: 0
    m_KeepOriginalOrientation: 0
    m_KeepOriginalPositionY: 1
    m_KeepOriginalPositionXZ: 0
    m_HeightFromFeet: 0
    m_Mirror: 0
  m_EditorCurves:
  - curve:
      serializedVersion: 2
      m_Curve:
      - serializedVersion: 3
        time: 0
        value: 0
        inSlope: Infinity
        outSlope: Infinity
        tangentMode: 103
        weightedMode: 0
        inWeight: 0
        outWeight: 0
      - serializedVersion: 3
        time: 1.0166667
        value: 1
        inSlope: Infinity
        outSlope: Infinity
        tangentMode: 103
        weightedMode: 0
        inWeight: 0
        outWeight: 0
      m_PreInfinity: 2
      m_PostInfinity: 2
      m_RotationOrder: 4
    attribute: m_Enabled
    path: blasting_fire_blasting_fire_0
    classID: 212
    script: {fileID: 0}
  m_EulerEditorCurves: []
  m_HasGenericRootTransform: 0
  m_HasMotionFloatCurves: 0
  m_Events: []
