%YAML 1.1
%TAG !u! tag:unity3d.com,2011:
--- !u!74 &7400000
AnimationClip:
  m_ObjectHideFlags: 0
  m_CorrespondingSourceObject: {fileID: 0}
  m_PrefabInstance: {fileID: 0}
  m_PrefabAsset: {fileID: 0}
  m_Name: Spawn
  serializedVersion: 6
  m_Legacy: 0
  m_Compressed: 0
  m_UseHighQualityCurve: 1
  m_RotationCurves: []
  m_CompressedRotationCurves: []
  m_EulerCurves: []
  m_PositionCurves: []
  m_ScaleCurves: []
  m_FloatCurves: []
  m_PPtrCurves:
  - curve:
    - time: 0
      value: {fileID: 21300000, guid: fa118899430826847b6bff35f00d97fd, type: 3}
    - time: 0.16666667
      value: {fileID: 21300000, guid: 92f043a2cccfc004a82efc05eed894a0, type: 3}
    - time: 0.33333334
      value: {fileID: 21300000, guid: 1a024f3a99a18894bacfe31e34c6a578, type: 3}
    - time: 0.5
      value: {fileID: 21300000, guid: af4fb3303c9395e419c7e825b93044ae, type: 3}
    - time: 0.6666667
      value: {fileID: 21300000, guid: fe7bbb737325556439f0a64ac962be72, type: 3}
    - time: 0.8333333
      value: {fileID: 21300000, guid: a21df3d6c546db24cb9236bc04e60d62, type: 3}
    - time: 1
      value: {fileID: 21300000, guid: a21df3d6c546db24cb9236bc04e60d62, type: 3}
    attribute: m_Sprite
    path: 
    classID: 212
    script: {fileID: 0}
  m_SampleRate: 60
  m_WrapMode: 0
  m_Bounds:
    m_Center: {x: 0, y: 0, z: 0}
    m_Extent: {x: 0, y: 0, z: 0}
  m_ClipBindingConstant:
    genericBindings:
    - serializedVersion: 2
      path: 0
      attribute: 0
      script: {fileID: 0}
      typeID: 212
      customType: 23
      isPPtrCurve: 1
    pptrCurveMapping:
    - {fileID: 21300000, guid: fa118899430826847b6bff35f00d97fd, type: 3}
    - {fileID: 21300000, guid: 92f043a2cccfc004a82efc05eed894a0, type: 3}
    - {fileID: 21300000, guid: 1a024f3a99a18894bacfe31e34c6a578, type: 3}
    - {fileID: 21300000, guid: af4fb3303c9395e419c7e825b93044ae, type: 3}
    - {fileID: 21300000, guid: fe7bbb737325556439f0a64ac962be72, type: 3}
    - {fileID: 21300000, guid: a21df3d6c546db24cb9236bc04e60d62, type: 3}
    - {fileID: 21300000, guid: a21df3d6c546db24cb9236bc04e60d62, type: 3}
  m_AnimationClipSettings:
    serializedVersion: 2
    m_AdditiveReferencePoseClip: {fileID: 0}
    m_AdditiveReferencePoseTime: 0
    m_StartTime: 0
    m_StopTime: 1.0166667
    m_OrientationOffsetY: 0
    m_Level: 0
    m_CycleOffset: 0
    m_HasAdditiveReferencePose: 0
    m_LoopTime: 0
    m_LoopBlend: 0
    m_LoopBlendOrientation: 0
    m_LoopBlendPositionY: 0
    m_LoopBlendPositionXZ: 0
    m_KeepOriginalOrientation: 0
    m_KeepOriginalPositionY: 1
    m_KeepOriginalPositionXZ: 0
    m_HeightFromFeet: 0
    m_Mirror: 0
  m_EditorCurves: []
  m_EulerEditorCurves: []
  m_HasGenericRootTransform: 0
  m_HasMotionFloatCurves: 0
  m_Events: []
