%YAML 1.1
%TAG !u! tag:unity3d.com,2011:
--- !u!114 &11400000
MonoBehaviour:
  m_ObjectHideFlags: 0
  m_CorrespondingSourceObject: {fileID: 0}
  m_PrefabInstance: {fileID: 0}
  m_PrefabAsset: {fileID: 0}
  m_GameObject: {fileID: 0}
  m_Enabled: 1
  m_EditorHideFlags: 0
  m_Script: {fileID: 11500000, guid: dbcda13c00cae4f4087d84a149a1c70b, type: 3}
  m_Name: Google Data Settings
  m_EditorClassIdentifier: 
  TemplatePath: QuickSheet/GDataPlugin/Templates
  RuntimePath: QuickSheet/Runtime
  EditorPath: QuickSheet/GDataPlugin/Editor/DB
  OAuth2Data:
    client_id: 123292578742-qampg5rh10ug3ibdt9gtr0284kof849g.apps.googleusercontent.com
    auth_uri: 
    token_uri: 
    auth_provider_x509_cert_url: 
    client_secret: xc79CC6TEcyGVa7FWkbO0Rov
    redirect_uris: []
  _AccessCode: 4/vwFd3BSeFjRoPeRRGH7y7YRWYmw1m63ZjS-QuoH21lCTArEaBzfqPtE
  _RefreshToken: 1//0erBHMe0LjrqsCgYIARAAGA4SNwF-L9IrEMtTH-SravQN-5ne5EKRrIGZUYm8hXtAdllt9whXsFBgfbwSg6XMlWr33xvBblluKp0
  _AccessToken: ya29.Il-7B2DIfEV73wByXCKKDy9F7LryVk9zwhhLQf7sZVTnFil0Wh6pXiHCTJONjyeNB8Gwmpj_W4QOa5aj3Ks1PHU5IzDgu43Lgg7c-LfNvZldMOLvnBmLodlefBpfltauUQ
