%YAML 1.1
%TAG !u! tag:unity3d.com,2011:
--- !u!74 &7400000
AnimationClip:
  m_ObjectHideFlags: 0
  m_CorrespondingSourceObject: {fileID: 0}
  m_PrefabInstance: {fileID: 0}
  m_PrefabAsset: {fileID: 0}
  m_Name: LoadingIcon
  serializedVersion: 6
  m_Legacy: 0
  m_Compressed: 0
  m_UseHighQualityCurve: 1
  m_RotationCurves: []
  m_CompressedRotationCurves: []
  m_EulerCurves: []
  m_PositionCurves: []
  m_ScaleCurves: []
  m_FloatCurves: []
  m_PPtrCurves:
  - curve:
    - time: 0
      value: {fileID: 21300000, guid: 25893064c931d2243a1c70fb3a9c910a, type: 3}
    - time: 0.13333334
      value: {fileID: 21300000, guid: 4348d00e2455c4e4a9d69bcd442f6d58, type: 3}
    - time: 0.25
      value: {fileID: 21300000, guid: d31449ce3490f6b44a68f2073aa8fdc5, type: 3}
    - time: 0.36666667
      value: {fileID: 21300000, guid: 559a02bcc6d6829408eac0a378c4dbb3, type: 3}
    - time: 0.5
      value: {fileID: 21300000, guid: 64ca6717870a2854a891f81af971d81a, type: 3}
    - time: 0.6333333
      value: {fileID: 21300000, guid: 74b4a51a682e28046b0f0239a9034db9, type: 3}
    - time: 0.75
      value: {fileID: 21300000, guid: 090580b808ce6c14aba96677b9ed9aa9, type: 3}
    - time: 0.8666667
      value: {fileID: 21300000, guid: c556f70661714524d98d5296ed8bfe09, type: 3}
    - time: 1
      value: {fileID: 21300000, guid: 12c20933b4471f0418c78121d6afcba0, type: 3}
    attribute: m_Sprite
    path: 
    classID: 114
    script: {fileID: 11500000, guid: fe87c0e1cc204ed48ad3b37840f39efc, type: 3}
  m_SampleRate: 60
  m_WrapMode: 0
  m_Bounds:
    m_Center: {x: 0, y: 0, z: 0}
    m_Extent: {x: 0, y: 0, z: 0}
  m_ClipBindingConstant:
    genericBindings:
    - serializedVersion: 2
      path: 0
      attribute: 2015549526
      script: {fileID: 11500000, guid: fe87c0e1cc204ed48ad3b37840f39efc, type: 3}
      typeID: 114
      customType: 0
      isPPtrCurve: 1
    pptrCurveMapping:
    - {fileID: 21300000, guid: 25893064c931d2243a1c70fb3a9c910a, type: 3}
    - {fileID: 21300000, guid: 4348d00e2455c4e4a9d69bcd442f6d58, type: 3}
    - {fileID: 21300000, guid: d31449ce3490f6b44a68f2073aa8fdc5, type: 3}
    - {fileID: 21300000, guid: 559a02bcc6d6829408eac0a378c4dbb3, type: 3}
    - {fileID: 21300000, guid: 64ca6717870a2854a891f81af971d81a, type: 3}
    - {fileID: 21300000, guid: 74b4a51a682e28046b0f0239a9034db9, type: 3}
    - {fileID: 21300000, guid: 090580b808ce6c14aba96677b9ed9aa9, type: 3}
    - {fileID: 21300000, guid: c556f70661714524d98d5296ed8bfe09, type: 3}
    - {fileID: 21300000, guid: 12c20933b4471f0418c78121d6afcba0, type: 3}
  m_AnimationClipSettings:
    serializedVersion: 2
    m_AdditiveReferencePoseClip: {fileID: 0}
    m_AdditiveReferencePoseTime: 0
    m_StartTime: 0
    m_StopTime: 1.0166667
    m_OrientationOffsetY: 0
    m_Level: 0
    m_CycleOffset: 0
    m_HasAdditiveReferencePose: 0
    m_LoopTime: 1
    m_LoopBlend: 0
    m_LoopBlendOrientation: 0
    m_LoopBlendPositionY: 0
    m_LoopBlendPositionXZ: 0
    m_KeepOriginalOrientation: 0
    m_KeepOriginalPositionY: 1
    m_KeepOriginalPositionXZ: 0
    m_HeightFromFeet: 0
    m_Mirror: 0
  m_EditorCurves: []
  m_EulerEditorCurves: []
  m_HasGenericRootTransform: 0
  m_HasMotionFloatCurves: 0
  m_Events: []
