%YAML 1.1
%TAG !u! tag:unity3d.com,2011:
--- !u!74 &7400000
AnimationClip:
  m_ObjectHideFlags: 0
  m_CorrespondingSourceObject: {fileID: 0}
  m_PrefabInstance: {fileID: 0}
  m_PrefabAsset: {fileID: 0}
  m_Name: explosive_cell
  serializedVersion: 6
  m_Legacy: 0
  m_Compressed: 0
  m_UseHighQualityCurve: 1
  m_RotationCurves: []
  m_CompressedRotationCurves: []
  m_EulerCurves: []
  m_PositionCurves: []
  m_ScaleCurves: []
  m_FloatCurves: []
  m_PPtrCurves:
  - curve:
    - time: 0
      value: {fileID: 21300000, guid: 236bc65c0c7e70a48b1958f12e340536, type: 3}
    - time: 0.2
      value: {fileID: 21300000, guid: eb3af2c2150dd8d44986fe2b13d2f7c0, type: 3}
    - time: 0.4
      value: {fileID: 21300000, guid: b92bbad44970b5643aa7d8df50f24ff7, type: 3}
    - time: 0.6
      value: {fileID: 21300000, guid: 893c822c36332a742b8698a1d1036e01, type: 3}
    - time: 0.8
      value: {fileID: 21300000, guid: aab35cfa9cd10ad48ac0e7b2a9c95753, type: 3}
    - time: 1
      value: {fileID: 21300000, guid: 5e7ac679df0bd3a41a4a9d28b9be5c3b, type: 3}
    attribute: m_Sprite
    path: 
    classID: 114
    script: {fileID: 11500000, guid: fe87c0e1cc204ed48ad3b37840f39efc, type: 3}
  m_SampleRate: 60
  m_WrapMode: 0
  m_Bounds:
    m_Center: {x: 0, y: 0, z: 0}
    m_Extent: {x: 0, y: 0, z: 0}
  m_ClipBindingConstant:
    genericBindings:
    - serializedVersion: 2
      path: 0
      attribute: 2015549526
      script: {fileID: 11500000, guid: fe87c0e1cc204ed48ad3b37840f39efc, type: 3}
      typeID: 114
      customType: 0
      isPPtrCurve: 1
    pptrCurveMapping:
    - {fileID: 21300000, guid: 236bc65c0c7e70a48b1958f12e340536, type: 3}
    - {fileID: 21300000, guid: eb3af2c2150dd8d44986fe2b13d2f7c0, type: 3}
    - {fileID: 21300000, guid: b92bbad44970b5643aa7d8df50f24ff7, type: 3}
    - {fileID: 21300000, guid: 893c822c36332a742b8698a1d1036e01, type: 3}
    - {fileID: 21300000, guid: aab35cfa9cd10ad48ac0e7b2a9c95753, type: 3}
    - {fileID: 21300000, guid: 5e7ac679df0bd3a41a4a9d28b9be5c3b, type: 3}
  m_AnimationClipSettings:
    serializedVersion: 2
    m_AdditiveReferencePoseClip: {fileID: 0}
    m_AdditiveReferencePoseTime: 0
    m_StartTime: 0
    m_StopTime: 1.0166667
    m_OrientationOffsetY: 0
    m_Level: 0
    m_CycleOffset: 0
    m_HasAdditiveReferencePose: 0
    m_LoopTime: 1
    m_LoopBlend: 0
    m_LoopBlendOrientation: 0
    m_LoopBlendPositionY: 0
    m_LoopBlendPositionXZ: 0
    m_KeepOriginalOrientation: 0
    m_KeepOriginalPositionY: 1
    m_KeepOriginalPositionXZ: 0
    m_HeightFromFeet: 0
    m_Mirror: 0
  m_EditorCurves: []
  m_EulerEditorCurves: []
  m_HasGenericRootTransform: 0
  m_HasMotionFloatCurves: 0
  m_Events: []
