%YAML 1.1
%TAG !u! tag:unity3d.com,2011:
--- !u!114 &11400000
MonoBehaviour:
  m_ObjectHideFlags: 0
  m_CorrespondingSourceObject: {fileID: 0}
  m_PrefabInstance: {fileID: 0}
  m_PrefabAsset: {fileID: 0}
  m_GameObject: {fileID: 0}
  m_Enabled: 1
  m_EditorHideFlags: 0
  m_Script: {fileID: 11500000, guid: 735bbf7ec794347c49beaec86c5345ec, type: 3}
  m_Name: SplatterSettings-TopDown-Preset1-Damage
  m_EditorClassIdentifier: 
  mode: 1
  directionMode: 0
  spanAngle: 180
  directionReference: {fileID: 0}
  direction: {x: 0, y: 0, z: 0}
  orientation: 0
  numBranchesMean: 8.5
  numBranchesVariance: 1.5
  branchChildrenMean: 7.5
  branchChildrenVariance: 2.5
  scaleMean: 0.5
  scaleVariance: 0.1
  scaleMin: 0.1
  centerPositionRange: 0.4
  randomRotation: 0
  moveSpeedMean: 0.5
  moveSpeedVariance: 0.3
  stepDuration: 0.01
  damping: 0.3
  colorMode: 1
  startColor: {r: 1, g: 1, b: 1, a: 1}
  colors: []
  multiplyColor: 1
  fadeOutBranches: 0
  brightnessVariation: 0.1
  hueVariation: 0
  saturationVariation: 0
  particleMode: 0
  particleTexture: {fileID: 0}
  particleMaterial: {fileID: 0}
  maxParticles: 12000
  removeParticles: 0
  particleLifetime: 10
  sortingLayerName: Default
