%YAML 1.1
%TAG !u! tag:unity3d.com,2011:
--- !u!74 &7400000
AnimationClip:
  m_ObjectHideFlags: 0
  m_CorrespondingSourceObject: {fileID: 0}
  m_PrefabInstance: {fileID: 0}
  m_PrefabAsset: {fileID: 0}
  m_Name: LoadingMake 1
  serializedVersion: 6
  m_Legacy: 0
  m_Compressed: 0
  m_UseHighQualityCurve: 1
  m_RotationCurves: []
  m_CompressedRotationCurves: []
  m_EulerCurves: []
  m_PositionCurves: []
  m_ScaleCurves: []
  m_FloatCurves: []
  m_PPtrCurves:
  - curve:
    - time: 0
      value: {fileID: 21300000, guid: b09a3f3c73bba6648a4e96bdb079b87a, type: 3}
    - time: 0.06666667
      value: {fileID: 21300000, guid: cdf9e65b97dc7264f832a6631f6287d7, type: 3}
    - time: 0.13333334
      value: {fileID: 21300000, guid: b6c9e9a9c21b7a448ad012df13463f71, type: 3}
    - time: 0.2
      value: {fileID: 21300000, guid: 975dbfb1337acf540b1412edb99cee8e, type: 3}
    - time: 0.26666668
      value: {fileID: 21300000, guid: 604dfd83e80330d4ca4fae63314105ba, type: 3}
    - time: 0.33333334
      value: {fileID: 21300000, guid: afbfd2c2fad0aa744b02551f0f902803, type: 3}
    - time: 0.4
      value: {fileID: 21300000, guid: 526783101833fc34a9e358deabd49941, type: 3}
    - time: 0.46666667
      value: {fileID: 21300000, guid: 9514e407d05489b4fa62ca852fb4dc53, type: 3}
    - time: 0.53333336
      value: {fileID: 21300000, guid: 4c049c72ae2e2744c90e8a32d64f57ae, type: 3}
    - time: 0.6
      value: {fileID: 21300000, guid: 3c5b4efc361e72e4fa4f24fda5f81e74, type: 3}
    - time: 0.6666667
      value: {fileID: 21300000, guid: 69cbf13d7d5aede489a6ea3813605a13, type: 3}
    - time: 0.73333335
      value: {fileID: 21300000, guid: 9d4e705542eee2d4498608e403b38e74, type: 3}
    - time: 0.8
      value: {fileID: 21300000, guid: e494de527e3ecde4c86761b174984598, type: 3}
    - time: 0.8666667
      value: {fileID: 21300000, guid: e066b4a553c0778479502a41890e5610, type: 3}
    - time: 0.9166667
      value: {fileID: 21300000, guid: 9a7149e3b9103c34ebf23a705f450488, type: 3}
    - time: 1
      value: {fileID: 21300000, guid: 3e6c4e39c9ebe07429da24ccd9706e3d, type: 3}
    - time: 1.0666667
      value: {fileID: 21300000, guid: 551708a481bb5384b890fb68bd0b00e5, type: 3}
    - time: 1.1333333
      value: {fileID: 21300000, guid: 99b76ecb62e056c49a0b8ad52c0f4c1b, type: 3}
    attribute: m_Sprite
    path: 
    classID: 114
    script: {fileID: 11500000, guid: fe87c0e1cc204ed48ad3b37840f39efc, type: 3}
  m_SampleRate: 60
  m_WrapMode: 0
  m_Bounds:
    m_Center: {x: 0, y: 0, z: 0}
    m_Extent: {x: 0, y: 0, z: 0}
  m_ClipBindingConstant:
    genericBindings:
    - serializedVersion: 2
      path: 0
      attribute: 2015549526
      script: {fileID: 11500000, guid: fe87c0e1cc204ed48ad3b37840f39efc, type: 3}
      typeID: 114
      customType: 0
      isPPtrCurve: 1
    pptrCurveMapping:
    - {fileID: 21300000, guid: b09a3f3c73bba6648a4e96bdb079b87a, type: 3}
    - {fileID: 21300000, guid: cdf9e65b97dc7264f832a6631f6287d7, type: 3}
    - {fileID: 21300000, guid: b6c9e9a9c21b7a448ad012df13463f71, type: 3}
    - {fileID: 21300000, guid: 975dbfb1337acf540b1412edb99cee8e, type: 3}
    - {fileID: 21300000, guid: 604dfd83e80330d4ca4fae63314105ba, type: 3}
    - {fileID: 21300000, guid: afbfd2c2fad0aa744b02551f0f902803, type: 3}
    - {fileID: 21300000, guid: 526783101833fc34a9e358deabd49941, type: 3}
    - {fileID: 21300000, guid: 9514e407d05489b4fa62ca852fb4dc53, type: 3}
    - {fileID: 21300000, guid: 4c049c72ae2e2744c90e8a32d64f57ae, type: 3}
    - {fileID: 21300000, guid: 3c5b4efc361e72e4fa4f24fda5f81e74, type: 3}
    - {fileID: 21300000, guid: 69cbf13d7d5aede489a6ea3813605a13, type: 3}
    - {fileID: 21300000, guid: 9d4e705542eee2d4498608e403b38e74, type: 3}
    - {fileID: 21300000, guid: e494de527e3ecde4c86761b174984598, type: 3}
    - {fileID: 21300000, guid: e066b4a553c0778479502a41890e5610, type: 3}
    - {fileID: 21300000, guid: 9a7149e3b9103c34ebf23a705f450488, type: 3}
    - {fileID: 21300000, guid: 3e6c4e39c9ebe07429da24ccd9706e3d, type: 3}
    - {fileID: 21300000, guid: 551708a481bb5384b890fb68bd0b00e5, type: 3}
    - {fileID: 21300000, guid: 99b76ecb62e056c49a0b8ad52c0f4c1b, type: 3}
  m_AnimationClipSettings:
    serializedVersion: 2
    m_AdditiveReferencePoseClip: {fileID: 0}
    m_AdditiveReferencePoseTime: 0
    m_StartTime: 0
    m_StopTime: 1.15
    m_OrientationOffsetY: 0
    m_Level: 0
    m_CycleOffset: 0
    m_HasAdditiveReferencePose: 0
    m_LoopTime: 1
    m_LoopBlend: 0
    m_LoopBlendOrientation: 0
    m_LoopBlendPositionY: 0
    m_LoopBlendPositionXZ: 0
    m_KeepOriginalOrientation: 0
    m_KeepOriginalPositionY: 1
    m_KeepOriginalPositionXZ: 0
    m_HeightFromFeet: 0
    m_Mirror: 0
  m_EditorCurves: []
  m_EulerEditorCurves: []
  m_HasGenericRootTransform: 0
  m_HasMotionFloatCurves: 0
  m_Events: []
