%YAML 1.1
%TAG !u! tag:unity3d.com,2011:
--- !u!74 &7400000
AnimationClip:
  m_ObjectHideFlags: 0
  m_CorrespondingSourceObject: {fileID: 0}
  m_PrefabInstance: {fileID: 0}
  m_PrefabAsset: {fileID: 0}
  m_Name: itemcapsule_bottom
  serializedVersion: 6
  m_Legacy: 0
  m_Compressed: 0
  m_UseHighQualityCurve: 1
  m_RotationCurves: []
  m_CompressedRotationCurves: []
  m_EulerCurves: []
  m_PositionCurves: []
  m_ScaleCurves: []
  m_FloatCurves: []
  m_PPtrCurves:
  - curve:
    - time: 0
      value: {fileID: 21300000, guid: 5a7022992207ec74e9a75e82d061226e, type: 3}
    - time: 0.15
      value: {fileID: 21300000, guid: ac0a9cdeb9a3a57469160ebfd8c1e0d8, type: 3}
    - time: 0.3
      value: {fileID: 21300000, guid: a0be1be7d0063714b8d758fd82add74e, type: 3}
    - time: 0.45
      value: {fileID: 21300000, guid: 9f0449b79658b7847994f5bccbe069f8, type: 3}
    - time: 0.6
      value: {fileID: 21300000, guid: bc4b5a4a9cbcf884b8591792fa305538, type: 3}
    - time: 0.75
      value: {fileID: 21300000, guid: 3926afef3cfcc0d47ba3784ef175a15f, type: 3}
    - time: 0.9
      value: {fileID: 21300000, guid: 775785c655d53354884a838bb6e70ca2, type: 3}
    - time: 1.05
      value: {fileID: 21300000, guid: 8d09c69303b89824297169dbdd927beb, type: 3}
    - time: 1.2
      value: {fileID: 21300000, guid: 67980fd6bbf17d24c91ab3a7f9787400, type: 3}
    - time: 1.35
      value: {fileID: 21300000, guid: efeb5e8bb20c16c4fadf00fc0880955e, type: 3}
    - time: 1.5
      value: {fileID: 21300000, guid: 5fc2647e958dfe348abd6eb91579c53a, type: 3}
    attribute: m_Sprite
    path: 
    classID: 212
    script: {fileID: 0}
  m_SampleRate: 60
  m_WrapMode: 0
  m_Bounds:
    m_Center: {x: 0, y: 0, z: 0}
    m_Extent: {x: 0, y: 0, z: 0}
  m_ClipBindingConstant:
    genericBindings:
    - serializedVersion: 2
      path: 0
      attribute: 0
      script: {fileID: 0}
      typeID: 212
      customType: 23
      isPPtrCurve: 1
    pptrCurveMapping:
    - {fileID: 21300000, guid: 5a7022992207ec74e9a75e82d061226e, type: 3}
    - {fileID: 21300000, guid: ac0a9cdeb9a3a57469160ebfd8c1e0d8, type: 3}
    - {fileID: 21300000, guid: a0be1be7d0063714b8d758fd82add74e, type: 3}
    - {fileID: 21300000, guid: 9f0449b79658b7847994f5bccbe069f8, type: 3}
    - {fileID: 21300000, guid: bc4b5a4a9cbcf884b8591792fa305538, type: 3}
    - {fileID: 21300000, guid: 3926afef3cfcc0d47ba3784ef175a15f, type: 3}
    - {fileID: 21300000, guid: 775785c655d53354884a838bb6e70ca2, type: 3}
    - {fileID: 21300000, guid: 8d09c69303b89824297169dbdd927beb, type: 3}
    - {fileID: 21300000, guid: 67980fd6bbf17d24c91ab3a7f9787400, type: 3}
    - {fileID: 21300000, guid: efeb5e8bb20c16c4fadf00fc0880955e, type: 3}
    - {fileID: 21300000, guid: 5fc2647e958dfe348abd6eb91579c53a, type: 3}
  m_AnimationClipSettings:
    serializedVersion: 2
    m_AdditiveReferencePoseClip: {fileID: 0}
    m_AdditiveReferencePoseTime: 0
    m_StartTime: 0
    m_StopTime: 1.5166667
    m_OrientationOffsetY: 0
    m_Level: 0
    m_CycleOffset: 0
    m_HasAdditiveReferencePose: 0
    m_LoopTime: 1
    m_LoopBlend: 0
    m_LoopBlendOrientation: 0
    m_LoopBlendPositionY: 0
    m_LoopBlendPositionXZ: 0
    m_KeepOriginalOrientation: 0
    m_KeepOriginalPositionY: 1
    m_KeepOriginalPositionXZ: 0
    m_HeightFromFeet: 0
    m_Mirror: 0
  m_EditorCurves: []
  m_EulerEditorCurves: []
  m_HasGenericRootTransform: 0
  m_HasMotionFloatCurves: 0
  m_Events: []
