%YAML 1.1
%TAG !u! tag:unity3d.com,2011:
--- !u!74 &7400000
AnimationClip:
  m_ObjectHideFlags: 0
  m_CorrespondingSourceObject: {fileID: 0}
  m_PrefabInstance: {fileID: 0}
  m_PrefabAsset: {fileID: 0}
  m_Name: portal_out
  serializedVersion: 6
  m_Legacy: 0
  m_Compressed: 0
  m_UseHighQualityCurve: 1
  m_RotationCurves: []
  m_CompressedRotationCurves: []
  m_EulerCurves: []
  m_PositionCurves: []
  m_ScaleCurves: []
  m_FloatCurves: []
  m_PPtrCurves:
  - curve:
    - time: 0
      value: {fileID: 21300000, guid: bc2d37ddd0074294586fe979598bb615, type: 3}
    - time: 0.06666667
      value: {fileID: 21300000, guid: e9cf9b13524ffc4498cede448ed70764, type: 3}
    - time: 0.15
      value: {fileID: 21300000, guid: 415f5b3c1f7cb4f45a71c13156432edb, type: 3}
    - time: 0.21666667
      value: {fileID: 21300000, guid: ecbb9f63f40b1874f84bcc3398ab3afc, type: 3}
    - time: 0.28333333
      value: {fileID: 21300000, guid: d8d160948c2009945b5e80943de6fdbc, type: 3}
    - time: 0.35
      value: {fileID: 21300000, guid: 370a150229b040d4ba1ca8ff03766886, type: 3}
    - time: 0.43333334
      value: {fileID: 21300000, guid: 5fc85c989d4091d4c906900cc577e086, type: 3}
    - time: 0.5
      value: {fileID: 21300000, guid: b1b3d11e29c9a2049898968add1fd707, type: 3}
    attribute: m_Sprite
    path: 
    classID: 212
    script: {fileID: 0}
  m_SampleRate: 60
  m_WrapMode: 0
  m_Bounds:
    m_Center: {x: 0, y: 0, z: 0}
    m_Extent: {x: 0, y: 0, z: 0}
  m_ClipBindingConstant:
    genericBindings:
    - serializedVersion: 2
      path: 0
      attribute: 0
      script: {fileID: 0}
      typeID: 212
      customType: 23
      isPPtrCurve: 1
    pptrCurveMapping:
    - {fileID: 21300000, guid: bc2d37ddd0074294586fe979598bb615, type: 3}
    - {fileID: 21300000, guid: e9cf9b13524ffc4498cede448ed70764, type: 3}
    - {fileID: 21300000, guid: 415f5b3c1f7cb4f45a71c13156432edb, type: 3}
    - {fileID: 21300000, guid: ecbb9f63f40b1874f84bcc3398ab3afc, type: 3}
    - {fileID: 21300000, guid: d8d160948c2009945b5e80943de6fdbc, type: 3}
    - {fileID: 21300000, guid: 370a150229b040d4ba1ca8ff03766886, type: 3}
    - {fileID: 21300000, guid: 5fc85c989d4091d4c906900cc577e086, type: 3}
    - {fileID: 21300000, guid: b1b3d11e29c9a2049898968add1fd707, type: 3}
  m_AnimationClipSettings:
    serializedVersion: 2
    m_AdditiveReferencePoseClip: {fileID: 0}
    m_AdditiveReferencePoseTime: 0
    m_StartTime: 0
    m_StopTime: 0.51666665
    m_OrientationOffsetY: 0
    m_Level: 0
    m_CycleOffset: 0
    m_HasAdditiveReferencePose: 0
    m_LoopTime: 0
    m_LoopBlend: 0
    m_LoopBlendOrientation: 0
    m_LoopBlendPositionY: 0
    m_LoopBlendPositionXZ: 0
    m_KeepOriginalOrientation: 0
    m_KeepOriginalPositionY: 1
    m_KeepOriginalPositionXZ: 0
    m_HeightFromFeet: 0
    m_Mirror: 0
  m_EditorCurves: []
  m_EulerEditorCurves: []
  m_HasGenericRootTransform: 0
  m_HasMotionFloatCurves: 0
  m_Events: []
