%YAML 1.1
%TAG !u! tag:unity3d.com,2011:
--- !u!114 &11400000
MonoBehaviour:
  m_ObjectHideFlags: 0
  m_CorrespondingSourceObject: {fileID: 0}
  m_PrefabInstance: {fileID: 0}
  m_PrefabAsset: {fileID: 0}
  m_GameObject: {fileID: 0}
  m_Enabled: 1
  m_EditorHideFlags: 0
  m_Script: {fileID: 11500000, guid: bdb4931813a361148a6651be452ff88e, type: 3}
  m_Name: Make Import Setting
  m_EditorClassIdentifier: 
  templatePath: QuickSheet/GDataPlugin/Templates
  scriptFilePath: QuickSheet/Runtime
  editorScriptFilePath: QuickSheet/GDataPlugin/Editor/DB
  sheetName: PJ_2nd_DBlist
  workSheetName: Make
  columnHeaderList:
  - type: 1
    name: ID
    isEnable: 0
    isArray: 0
  - type: 1
    name: ResultType
    isEnable: 0
    isArray: 0
  - type: 1
    name: Maker
    isEnable: 0
    isArray: 0
  - type: 1
    name: MaterialsType
    isEnable: 0
    isArray: 1
  - type: 1
    name: Materials
    isEnable: 0
    isArray: 1
  - type: 3
    name: Counts
    isEnable: 0
    isArray: 1
  - type: 3
    name: Counts2
    isEnable: 0
    isArray: 1
  - type: 1
    name: Unlock
    isEnable: 0
    isArray: 0
  - type: 5
    name: CoolTime
    isEnable: 0
    isArray: 0
  - type: 3
    name: Makecount
    isEnable: 0
    isArray: 0
  AccessCode: 
